{
  "configuration": {
    "status": "error",
    "name": "ChatserverLogger",
    "packages": "com.pingwinno",
    "ThresholdFilter": {
      "level": "debug"
    },
    "appenders": {
      "appender": [
        {
          "type": "Console",
          "name": "STDOUT",
          "PatternLayout": {
            "disableAnsi": "false",
            "pattern": "%d{dd-MMM-yyyy HH:mm:ss} %highlight{%-5level} %c{1} %m %n"
          },
          "ThresholdFilter": {
            "level": "debug"
          }
        },
        {
          "type": "File",
          "name": "File",
          "fileName":"client.log",
          "PatternLayout": {
            "pattern": "%d{dd-MMM-yyyy HH:mm:ss} %-5level %c{1} %m %n"
          },
          "ThresholdFilter": {
            "level": "debug"
          }
        }
      ]
    },
    "loggers": {
      "logger": [
        { "name": "com.pingwinno", "level": "debug", "additivity": "false",
          "AppenderRef": [{ "ref": "File" }, {"ref": "STDOUT"}]}
      ],
      "root": { "level": "error", "AppenderRef": { "ref": "STDOUT" }}
    }
  }
}